BSA_Con,BSA_Clo,Tb_Con,Tb_Clo,BSA_Con,BSA_Clo,Tb_Con,Tb_Clo
9076815,83799911.25,789318090,450884115,244,1329,6518,7364
11285443.13,36133700.63,2212154443,175868055,292,901,12516,2163
13528102.5,64936389.38,2924828713,913084981.9,296,1230,12156,11135
903189.375,75322046.25,1920170402,407228146.9,62,1353,12688,6393